Geocoding - LOST
…
For gio_batch_reverse we will submit a vector of numeric entries
ordered by c(longitude, latitude):

#make a dataset 
data<-data.frame(
  lat = c(35.9746000, 32.8793700, 33.8337100, 35.4171240),
  lon = c(-77.9658000, -96.6303900, -117.8362320, -80.6784760)
)

gio_batch_reverse(data)

## # A tibble: 29 x 17
##    formatted_addre… accuracy accuracy_type source number predirectional street
##    <chr>               <dbl> <chr>         <chr>  <chr>  <chr>          <chr> 
##  1 101 W Washingto…     1    rooftop       NC Ge… 101    W              Washi…
##  2 101 US Hwy 64 A…     1    nearest_stre… TIGER… 101    <NA>           US Hw…
##  3 126 US Hwy 64 A…     1    nearest_stre… TIGER… 126    <NA>           US Hw…
##  4 101 E Washingto…     0.99 rooftop       Nash   101    E              Washi…
##  5 101 W Washingto…     0.99 rooftop       Nash   101    W              Washi…
##  6 100 E Washingto…     0.99 rooftop       NC Ge… 100    E              Washi…
##  7 101 E Washingto…     0.99 rooftop       NC Ge… 101    E              Washi…
##  8 100 N Alston St…     0.99 nearest_stre… TIGER… 100    N              Alston
##  9 3034 S 1st St, …     1    rooftop       City … 3034   S              1st   
## 10 3034 S 1st St, …     0.99 rooftop       Dallas 3034   S              1st   
## # … with 19 more rows, and 10 more variables: suffix <chr>,
## #   formatted_street <chr>, city <chr>, county <chr>, state <chr>, zip <chr>,
## #   country <chr>, location_lat <dbl>, location_lng <dbl>,
## #   postdirectional <chr>
…
